…
``` r
# String apenas com registros de famílias
c60_string_hh <-   c60_string[which(teste_char17_dom_pess == 1)]
num_linha_dom <- (1:n_linhas)[which(teste_char17_dom_pess == 1)]
```

Abrimos também o arquivo de layout refere às familias:

``` r
input_hh   <- read_xlsx(input_file, sheet = "Family_open")
input_hh
```

    ## # A tibble: 23 x 5
    ##    Var            Start   End Valid_values      obs                       
    ##    <chr>          <dbl> <dbl> <chr>             <chr>                     
    ##  1 UF                 1     2 sheet             <NA>                      
    ##  2 V116               3     6 <NA>              <NA>                      
    ##  3 place_holder_~     7     8 <NA>              pode ser o distrito do mu~
    ##  4 place_holder_~     9    16 <NA>              pode ser um ID de Família~
    ##  5 REC_TYPE          17    17 1;2;3             <NA>                      
    ##  6 V118              18    18 1;3;5             <NA>                      
    ##  7 V101              19    19 1;2;3;4;5;9       <NA>                      
    ##  8 V102              20    20 ;4;5;6;7          <NA>                      
    ##  9 V103              21    21 ;7;8;9;0          <NA>                      
    ## 10 V104              22    22 ;0;1;2;3;4;5;6;7~ <NA>                      
    ## # ... with 13 more rows
…
O resultado é um banco de dados no qual todas as colunas ainda possuem o formato texto (string/character), guardando todas as informações originais (sem transformar campos numéricos em integer ou doubles, por exemplo, o que removeria os zeros à esquerda). Além disso, uma coluna adicional de verificação foi criada ao lado de cada variável, indicando `TRUE` quando os valores observados são válidos (listados no dicionário) e `FALSE`, caso contrário.

``` r
censo1960_hh
```

    ## # A tibble: 174,467 x 43
    ##    num_linha_dom UF    test_UF V116  test_V116 place_holder_07~
    ##            <int> <chr> <lgl>   <chr> <lgl>     <chr>           
    ##  1             1 00    TRUE    0011  TRUE      01              
    ##  2             4 00    TRUE    0011  TRUE      01              
    ##  3             6 00    TRUE    0011  TRUE      01              
    ##  4            27 00    TRUE    0011  TRUE      01              
    ##  5            32 00    TRUE    0011  TRUE      01              
    ##  6            34 00    TRUE    0011  TRUE      01              
    ##  7            40 00    TRUE    0011  TRUE      01              
    ##  8            44 00    TRUE    0011  TRUE      01              
    ##  9            55 00    TRUE    0011  TRUE      01              
    ## 10            67 00    TRUE    0011  TRUE      01              
    ## # ... with 174,457 more rows, and 37 more variables:
    ## #   place_holder_09_16 <chr>, REC_TYPE <chr>, test_REC_TYPE <lgl>,
    ## #   V118 <chr>, test_V118 <lgl>, V101 <chr>, test_V101 <lgl>, V102 <chr>,
    ## #   test_V102 <lgl>, V103 <chr>, test_V103 <lgl>, V104 <chr>,
    ## #   test_V104 <lgl>, V105 <chr>, test_V105 <lgl>, V106 <chr>,
    ## #   test_V106 <lgl>, V107 <chr>, test_V107 <lgl>, V108 <chr>,
    ## #   test_V108 <lgl>, V109 <chr>, test_V109 <lgl>, V110 <chr>,
    ## #   test_V110 <lgl>, V111 <chr>, test_V111 <lgl>, V112 <chr>,
    ## #   test_V112 <lgl>, place_holder_32_32 <chr>, V113 <chr>,
…
censo1960_pess <- left_join(x = censo1960_pess,
                          y = casos_problematicos %>%
                                  select(num_linha_pess, cem_problematic_vars_list_pess),
                          by = "num_linha_pess")
```

Ao fim, os casos corrompidos terão marcações como as do exemplo abaixo:

``` r
censo1960_pess %>%
        filter(cem_problematic_vars_list_pess != "") %>%
        select(num_linha_pess, cem_problematic_vars_list_pess)
```

    ## # A tibble: 81 x 2
    ##    num_linha_pess cem_problematic_vars_list_pess                          
    ##             <int> <chr>                                                   
    ##  1           9817 V207                                                    
    ##  2         162537 V206                                                    
    ##  3         194609 UF V116 REC_TYPE V118 V202 V203 V204 AGE V205 V206 V207~
    ##  4         224345 V208                                                    
    ##  5         228629 V208                                                    
    ##  6         238423 V208                                                    
    ##  7         293555 UF V116 REC_TYPE V118 V202 V203 V204 AGE V205 V206 V207~
    ##  8         293556 V116                                                    
    ##  9         388894 UF V116 REC_TYPE V118 V202 V203 V204 AGE V205 V206 V207~
    ## 10         388895 UF V116 REC_TYPE V118 V202 V203 V204 AGE V205 V206 V207~
    ## # ... with 71 more rows
…
